LastName|FirstName|MRN|VisitID|ApptTime|ApptReason|LocationText|AdmitDate|DischargeDate|DischargeCode|DictatorLast|DictatorFirst|DictatorId
MILLIGAN|BRYNN|50707|71740|20130216080000|Appointment Reason1|MIDWEST FAMILY MEDICINE|2/16/2013 8:00:00 AM|2/17/2013 8:00:00 AM|634967028000000000|Tester10|QA|201110
LARSON|DONNIE|50708|71741|20130216081500|ANNUAL CHECK UP|MIDWEST FAMILY MEDICINE|2/16/2013 8:15:00 AM|2/18/2013 8:15:00 AM|634967901000000000|Tester10|QA|201110
MARSTON|ARIE|50709|71742|20130216083000|BROKEN ARM|MIDWEST FAMILY MEDICINE|2/16/2013 8:30:00 AM|2/18/2013 8:30:00 AM|634967910000000000|Tester10|QA|201110
SOILEAU|TESSIE|50710|71743|20130216084500|Appointment Reason3|MIDWEST FAMILY MEDICINE|2/16/2013 8:45:00 AM|2/17/2013 8:45:00 PM|634967487000000000|Tester10|QA|201110
HAY|JULIETTE|50711|71744|20130216090000|SPORTS PHYSICAL|MIDWEST FAMILY MEDICINE|2/16/2013 9:00:00 AM|2/17/2013 9:00:00 AM|634967064000000000|Tester10|QA|201110
KURTZ|FREDERIC|50712|71745|20130216080000|Appointment Reason2|CENTRAL HEALTHCARE CARDIOLOGY|2/16/2013 8:00:00 AM|2/18/2013 8:00:00 AM|634967892000000000|Tester20|QA|201120
KELL|REGAN|50713|71746|20130216081500|ANNUAL CHECK UP|CENTRAL HEALTHCARE CARDIOLOGY|2/16/2013 8:15:00 AM|2/18/2013 8:15:00 AM|634967901000000000|Tester20|QA|201120
HOLGUIN|CLAUD|50714|71747|20130216083000|SKIN RASH|CENTRAL HEALTHCARE CARDIOLOGY|2/16/2013 8:30:00 AM|2/17/2013 8:30:00 PM|634967478000000000|Tester20|QA|201120
WEINTRAUB|JASMIN|50715|71748|20130216084500|Appointment Reason1|CENTRAL HEALTHCARE CARDIOLOGY|2/16/2013 8:45:00 AM|2/18/2013 8:45:00 AM|634967919000000000|Tester20|QA|201120
IVES|MINTA|50716|71749|20130216090000|Appointment Reason3|CENTRAL HEALTHCARE CARDIOLOGY|2/16/2013 9:00:00 AM|2/18/2013 9:00:00 AM|634967928000000000|Tester20|QA|201120
SHUMATE|GALE|50717|71750|20130216100000|Appointment Reason3|BEDFORD CARDIOLOGY|2/16/2013 10:00:00 AM|2/17/2013 10:00:00 PM|634967532000000000|Tester20|QA|201120
JAUREGUI|SAUL|50718|71751|20130216101500|ANNUAL CHECK UP|BEDFORD CARDIOLOGY|2/16/2013 10:15:00 AM|2/17/2013 10:15:00 AM|634967109000000000|Tester20|QA|201120
BECKER|MARK|50719|71752|20130216103000|Sick Patient Visit|BEDFORD CARDIOLOGY|2/16/2013 10:30:00 AM|2/17/2013 10:30:00 PM|634967550000000000|Tester20|QA|201120
BORDERS|SHARON|50720|71753|20130216104500|Sick Patient Visit|BEDFORD CARDIOLOGY|2/16/2013 10:45:00 AM|2/17/2013 10:45:00 PM|634967559000000000|Tester20|QA|201120
MOORMAN|DALLAS|50721|71754|20130216110000|BROKEN ARM|BEDFORD CARDIOLOGY|2/16/2013 11:00:00 AM|2/17/2013 11:00:00 AM|634967136000000000|Tester20|QA|201120
ISBELL|ANNELLE|50722|71755|20130216120000|Sick Patient Visit|NORTHWEST CARDIOLOGY|2/16/2013 12:00:00 PM|2/18/2013 12:00:00 AM|634967604000000000|Tester20|QA|201120
DINGMAN|DORRIS|50723|71756|20130216121500|SKIN RASH|NORTHWEST CARDIOLOGY|2/16/2013 12:15:00 PM|2/18/2013 12:15:00 AM|634967613000000000|Tester20|QA|201120
BURROW|EUGENIO|50724|71757|20130216123000|SPORTS PHYSICAL|NORTHWEST CARDIOLOGY|2/16/2013 12:30:00 PM|2/17/2013 12:30:00 PM|634967190000000000|Tester20|QA|201120
ARROWOOD|FREDRICKA|50725|71758|20130216124500|Sick Patient Visit|NORTHWEST CARDIOLOGY|2/16/2013 12:45:00 PM|2/17/2013 12:45:00 PM|634967199000000000|Tester20|QA|201120
FRIEND|GREGG|50726|71759|20130216130000|SPORTS PHYSICAL|NORTHWEST CARDIOLOGY|2/16/2013 1:00:00 PM|2/17/2013 1:00:00 PM|634967208000000000|Tester20|QA|201120
